\relax 
\citation{Harary1983}
\citation{FABREGA199649}
\citation{Esfahanian1989}
\citation{YU201386}
\citation{CHEN20071848}
\citation{WAN2009264}
\citation{LinL2015}
\@writefile{toc}{\contentsline {section}{\numberline {1}Introduction}{1}}
\citation{Lin2016}
\citation{Sabir2018}
\citation{LiD2018}
\citation{LSH2018}
\citation{wang2019structure}
\citation{Lv2018}
\citation{stargraph1}
\citation{stargraph2}
\citation{Bouabdallah}
\citation{JHPark2004}
\citation{HuSC1995}
\@writefile{toc}{\contentsline {section}{\numberline {2}Notations and Definitions}{2}}
\newlabel{notations}{{2}{2}}
\@writefile{lof}{\contentsline {figure}{\numberline {1}{\ignorespaces The 2, 3, and 4 dimensional star graphs\relax }}{3}}
\providecommand*\caption@xref[2]{\@setref\relax\@undefined{#1}}
\newlabel{StarGraph}{{1}{3}}
\citation{JHPark2004}
\@writefile{lof}{\contentsline {figure}{\numberline {2}{\ignorespaces The 2, 3, and 4 dimensional pancake graphs\relax }}{4}}
\newlabel{PancakeGraph}{{2}{4}}
\newlabel{connectivity}{{1}{4}}
\@writefile{toc}{\contentsline {section}{\numberline {3}Structure connectivity and substructure connectivity of star graph }{4}}
\newlabel{stargraphStructureConnectivity}{{3}{4}}
\newlabel{SEij}{{1}{4}}
\@writefile{toc}{\contentsline {subsection}{\numberline {3.1}$\kappa ^s(\mathbb  {S}_n,K_{1,m})$ and $\kappa (\mathbb  {S}_n,K_{1,m})$}{4}}
\newlabel{FBi}{{2}{5}}
\newlabel{SK1m<=}{{3}{5}}
\newlabel{K1m}{{2}{5}}
\@writefile{toc}{\contentsline {subsection}{\numberline {3.2}$\kappa ^s(\mathbb  {S}_n,C_6)$ and $\kappa (\mathbb  {S}_n,C_6)$}{6}}
\newlabel{C6}{{4}{6}}
\newlabel{C6<=}{{5}{6}}
\newlabel{C6>=}{{6}{6}}
\newlabel{C6_4equal}{{3}{7}}
\newlabel{L5}{{7}{7}}
\newlabel{CS6}{{8}{7}}
\newlabel{CS6<=}{{9}{7}}
\newlabel{P3}{{10}{8}}
\newlabel{C6_equal}{{4}{8}}
\citation{Kanevsky1995}
\citation{JHPark2004}
\@writefile{toc}{\contentsline {subsection}{\numberline {3.3}$\kappa ^s(\mathbb  {S}_n,P_5)$ and $\kappa (\mathbb  {S}_n,P_5)$}{10}}
\newlabel{LS6=}{{5}{10}}
\@writefile{toc}{\contentsline {section}{\numberline {4}Structure connectivity and substructure connectivity of pancake graph}{10}}
\newlabel{pancakegraphStructureConnectivity}{{4}{10}}
\newlabel{PnK1m}{{6}{10}}
\newlabel{PEij}{{11}{10}}
\newlabel{P5C6==}{{7}{10}}
\newlabel{PC6<=}{{12}{10}}
\newlabel{PnC65=}{{8}{11}}
\newlabel{PnC6=}{{9}{11}}
\newlabel{PnLS6=}{{10}{11}}
\@writefile{toc}{\contentsline {section}{\numberline {5}Conclusions}{11}}
\newlabel{conclusion}{{5}{11}}
\bibcite{stargraph2}{1}
\bibcite{Bouabdallah}{2}
\bibcite{JHPark2004}{3}
\bibcite{Kanevsky1995}{4}
\bibcite{Harary1983}{5}
\bibcite{HuSC1995}{6}
\bibcite{FABREGA199649}{7}
\bibcite{Esfahanian1989}{8}
\bibcite{HSIEH201263}{9}
\bibcite{YU201386}{10}
\bibcite{CHEN20071848}{11}
\bibcite{WAN2009264}{12}
\bibcite{LinL2015}{13}
\bibcite{Lin2016}{14}
\bibcite{Sabir2018}{15}
\bibcite{LiD2018}{16}
\bibcite{LSH2018}{17}
\bibcite{wang2019structure}{18}
\bibcite{Lv2018}{19}
\bibcite{stargraph1}{20}
